Report;;;;;;;;
File;Weighing database (Scale: all, 10.3.2015 - 31.3.2015);;;;;;;
Gender;male;;;;;;;
;;;;;;;;
Date;Scale;Day;Count;Average;Gain;Cv;Uni;Note
10.3.2015;789;2;20;1;1;1;1;
11.3.2015;123;2;3;1;1;1;1;
31.3.2015;999;1;10;1;11;1;25;
