File:	SW CITY CONTROL		Count:	300		CV [%]:	13.9
Scale:	MERIAL1		Average [lb]:	4.042		Uniformity [%]:	48.3
Note:			St. deviation [lb]:	0.563		Speed [1/hour]:	92

File	Number	Date and time	Weight [lb]	Sex / limit			
SW CITY CONTROL	1	6/10/2011 8:06	4.002	not used	VamTou - 4.03 proj; 4.30 actual		
SW CITY CONTROL	2	6/10/2011 8:06	4.563	not used			
SW CITY CONTROL	3	6/10/2011 8:06	4.533	not used			
SW CITY CONTROL	4	6/10/2011 8:06	4.159	not used			
SW CITY CONTROL	5	6/10/2011 8:06	3.493	not used			
SW CITY CONTROL	6	6/10/2011 8:06	4.533	not used			
SW CITY CONTROL	7	6/10/2011 8:07	4.45	not used			
SW CITY CONTROL	8	6/10/2011 8:07	3.572	not used			
SW CITY CONTROL	9	6/10/2011 8:07	3.939	not used			
SW CITY CONTROL	10	6/10/2011 8:07	3.896	not used			
SW CITY CONTROL	11	6/10/2011 8:07	3.932	not used			
SW CITY CONTROL	12	6/10/2011 8:07	3.333	not used
SW CITY CONTROL	13	6/10/2011 8:08	3.65	not used
SW CITY CONTROL	14	6/10/2011 8:08	3.222	not used
SW CITY CONTROL	15	6/10/2011 8:08	5.038	not used
SW CITY CONTROL	16	6/10/2011 8:08	4.865	not used
SW CITY CONTROL	17	6/10/2011 8:08	4.856	not used
SW CITY CONTROL	18	6/10/2011 8:08	4.34	not used
SW CITY CONTROL	19	6/10/2011 8:08	4.835	not used
SW CITY CONTROL	20	6/10/2011 8:08	4.237	not used
SW CITY CONTROL	21	6/10/2011 8:09	3.754	not used
SW CITY CONTROL	22	6/10/2011 8:09	3.976	not used
SW CITY CONTROL	23	6/10/2011 8:09	4.165	not used
SW CITY CONTROL	24	6/10/2011 8:09	5.024	not used
SW CITY CONTROL	25	6/10/2011 8:09	4.127	not used
SW CITY CONTROL	26	6/10/2011 8:09	3.419	not used
SW CITY CONTROL	27	6/10/2011 8:09	4.13	not used
SW CITY CONTROL	28	6/10/2011 8:09	3.879	not used
SW CITY CONTROL	29	6/10/2011 8:10	4.494	not used
SW CITY CONTROL	30	6/10/2011 8:10	4.728	not used
SW CITY CONTROL	31	6/10/2011 8:10	4.008	not used
SW CITY CONTROL	32	6/10/2011 8:10	4.199	not used
SW CITY CONTROL	33	6/10/2011 8:10	3.918	not used
SW CITY CONTROL	34	6/10/2011 8:10	3.493	not used
SW CITY CONTROL	35	6/10/2011 8:10	4.038	not used
SW CITY CONTROL	36	6/10/2011 8:11	4.068	not used
SW CITY CONTROL	37	6/10/2011 8:11	3.675	not used
SW CITY CONTROL	38	6/10/2011 8:11	4.961	not used
SW CITY CONTROL	39	6/10/2011 8:11	5.682	not used
SW CITY CONTROL	40	6/10/2011 8:11	5.071	not used
SW CITY CONTROL	41	6/10/2011 8:11	4.269	not used
SW CITY CONTROL	42	6/10/2011 8:11	5.019	not used
SW CITY CONTROL	43	6/10/2011 8:11	3.823	not used
SW CITY CONTROL	44	6/10/2011 8:12	3.254	not used
SW CITY CONTROL	45	6/10/2011 8:12	4.389	not used
SW CITY CONTROL	46	6/10/2011 8:12	3.458	not used
SW CITY CONTROL	47	6/10/2011 8:12	3.814	not used
SW CITY CONTROL	48	6/10/2011 8:12	4.937	not used
SW CITY CONTROL	49	6/10/2011 8:12	4.582	not used
SW CITY CONTROL	50	6/10/2011 8:12	3.985	not used
SW CITY CONTROL	51	6/10/2011 8:13	4.081	not used
SW CITY CONTROL	52	6/10/2011 8:13	3.288	not used
SW CITY CONTROL	53	6/10/2011 8:13	3.589	not used
SW CITY CONTROL	54	6/10/2011 8:13	4.738	not used
SW CITY CONTROL	55	6/10/2011 8:13	4.451	not used
SW CITY CONTROL	56	6/10/2011 8:13	4.493	not used
SW CITY CONTROL	57	6/10/2011 8:13	4.065	not used
SW CITY CONTROL	58	6/10/2011 8:14	3.98	not used
SW CITY CONTROL	59	6/10/2011 8:14	4.462	not used
SW CITY CONTROL	60	6/10/2011 8:14	4.049	not used
SW CITY CONTROL	61	6/10/2011 8:14	4.16	not used
SW CITY CONTROL	62	6/10/2011 8:14	3.882	not used
SW CITY CONTROL	63	6/10/2011 8:14	3.66	not used
SW CITY CONTROL	64	6/10/2011 8:14	4.424	not used
SW CITY CONTROL	65	6/10/2011 8:14	3.901	not used
SW CITY CONTROL	66	6/10/2011 8:15	4.617	not used
SW CITY CONTROL	67	6/10/2011 8:15	3.746	not used
SW CITY CONTROL	68	6/10/2011 8:15	3.33	not used
SW CITY CONTROL	69	6/10/2011 8:15	4.784	not used
SW CITY CONTROL	70	6/10/2011 8:15	4.584	not used
SW CITY CONTROL	71	6/10/2011 8:15	5.204	not used
SW CITY CONTROL	72	6/10/2011 8:15	4.815	not used
SW CITY CONTROL	73	6/10/2011 8:16	5.172	not used
SW CITY CONTROL	74	6/10/2011 8:16	4.669	not used
SW CITY CONTROL	75	6/10/2011 8:16	4.591	not used
SW CITY CONTROL	76	6/10/2011 8:16	4.009	not used
SW CITY CONTROL	77	6/10/2011 8:16	4.198	not used
SW CITY CONTROL	78	6/10/2011 8:16	4.04	not used
SW CITY CONTROL	79	6/10/2011 8:16	3.521	not used
SW CITY CONTROL	80	6/10/2011 8:16	5.078	not used
SW CITY CONTROL	81	6/10/2011 8:17	2.651	not used
SW CITY CONTROL	82	6/10/2011 8:17	4.94	not used
SW CITY CONTROL	83	6/10/2011 8:17	3.698	not used
SW CITY CONTROL	84	6/10/2011 8:17	4.573	not used
SW CITY CONTROL	85	6/10/2011 8:17	3.574	not used
SW CITY CONTROL	86	6/10/2011 8:17	4.264	not used
SW CITY CONTROL	87	6/10/2011 8:17	3.541	not used
SW CITY CONTROL	88	6/10/2011 8:18	4.014	not used
SW CITY CONTROL	89	6/10/2011 8:18	5.007	not used
SW CITY CONTROL	90	6/10/2011 8:18	4.333	not used
SW CITY CONTROL	91	6/10/2011 8:18	4.548	not used
SW CITY CONTROL	92	6/10/2011 8:18	4.287	not used	
SW CITY CONTROL	93	6/10/2011 8:18	3.889	not used	
SW CITY CONTROL	94	6/10/2011 8:18	3.709	not used	
SW CITY CONTROL	95	6/10/2011 8:19	3.011	not used	
SW CITY CONTROL	96	6/10/2011 8:19	3.731	not used	
SW CITY CONTROL	97	6/10/2011 8:19	5.022	not used	
SW CITY CONTROL	98	6/10/2011 8:19	4.452	not used	
SW CITY CONTROL	99	6/10/2011 8:19	4.44	not used	
SW CITY CONTROL	100	6/10/2011 8:19	3.93	not used	
SW CITY CONTROL	101	6/10/2011 8:19	3.627	not used	
SW CITY CONTROL	102	6/10/2011 8:45	4.184	not used	VamTou - 4.03 proj; 4.30 actual
SW CITY CONTROL	103	6/10/2011 8:45	4.698	not used	
SW CITY CONTROL	104	6/10/2011 8:45	5.066	not used	
SW CITY CONTROL	105	6/10/2011 8:45	4.314	not used	
SW CITY CONTROL	106	6/10/2011 8:45	3.821	not used	
SW CITY CONTROL	107	6/10/2011 8:45	4.7	not used	
SW CITY CONTROL	108	6/10/2011 8:45	4.084	not used
SW CITY CONTROL	109	6/10/2011 8:46	4.45	not used
SW CITY CONTROL	110	6/10/2011 8:46	4.154	not used
SW CITY CONTROL	111	6/10/2011 8:46	4.183	not used
SW CITY CONTROL	112	6/10/2011 8:46	5.231	not used
SW CITY CONTROL	113	6/10/2011 8:46	3.795	not used
SW CITY CONTROL	114	6/10/2011 8:46	3.74	not used
SW CITY CONTROL	115	6/10/2011 8:46	2.895	not used
SW CITY CONTROL	116	6/10/2011 8:46	4.221	not used
SW CITY CONTROL	117	6/10/2011 8:47	3.962	not used
SW CITY CONTROL	118	6/10/2011 8:47	3.366	not used
SW CITY CONTROL	119	6/10/2011 8:47	4.018	not used
SW CITY CONTROL	120	6/10/2011 8:47	4.072	not used
SW CITY CONTROL	121	6/10/2011 8:47	4.282	not used
SW CITY CONTROL	122	6/10/2011 8:47	4.355	not used
SW CITY CONTROL	123	6/10/2011 8:47	4.524	not used
SW CITY CONTROL	124	6/10/2011 8:48	4.625	not used
SW CITY CONTROL	125	6/10/2011 8:48	4.741	not used
SW CITY CONTROL	126	6/10/2011 8:48	4.322	not used
SW CITY CONTROL	127	6/10/2011 8:48	4.537	not used
SW CITY CONTROL	128	6/10/2011 8:48	4.694	not used
SW CITY CONTROL	129	6/10/2011 8:48	4.588	not used
SW CITY CONTROL	130	6/10/2011 8:48	3.78	not used
SW CITY CONTROL	131	6/10/2011 8:49	4.369	not used
SW CITY CONTROL	132	6/10/2011 8:49	4.053	not used
SW CITY CONTROL	133	6/10/2011 8:49	4.789	not used
SW CITY CONTROL	134	6/10/2011 8:49	4.292	not used
SW CITY CONTROL	135	6/10/2011 8:49	3.806	not used
SW CITY CONTROL	136	6/10/2011 8:49	3.795	not used
SW CITY CONTROL	137	6/10/2011 8:49	3.916	not used
SW CITY CONTROL	138	6/10/2011 8:50	4.84	not used
SW CITY CONTROL	139	6/10/2011 8:50	5.335	not used
SW CITY CONTROL	140	6/10/2011 8:50	4.232	not used
SW CITY CONTROL	141	6/10/2011 8:50	3.885	not used
SW CITY CONTROL	142	6/10/2011 8:50	5.004	not used
SW CITY CONTROL	143	6/10/2011 8:50	4.148	not used
SW CITY CONTROL	144	6/10/2011 8:51	4.58	not used
SW CITY CONTROL	145	6/10/2011 8:51	4.756	not used
SW CITY CONTROL	146	6/10/2011 8:51	4.24	not used
SW CITY CONTROL	147	6/10/2011 8:51	4.895	not used
SW CITY CONTROL	148	6/10/2011 8:51	5.123	not used
SW CITY CONTROL	149	6/10/2011 8:51	4.186	not used
SW CITY CONTROL	150	6/10/2011 8:51	4.31	not used
SW CITY CONTROL	151	6/10/2011 8:52	3.593	not used
SW CITY CONTROL	152	6/10/2011 8:52	4.572	not used
SW CITY CONTROL	153	6/10/2011 8:52	3.998	not used
SW CITY CONTROL	154	6/10/2011 8:52	4.416	not used
SW CITY CONTROL	155	6/10/2011 8:52	4.432	not used
SW CITY CONTROL	156	6/10/2011 8:52	3.517	not used
SW CITY CONTROL	157	6/10/2011 8:53	4.533	not used
SW CITY CONTROL	158	6/10/2011 8:53	4.324	not used
SW CITY CONTROL	159	6/10/2011 8:53	5.172	not used
SW CITY CONTROL	160	6/10/2011 8:53	4.556	not used
SW CITY CONTROL	161	6/10/2011 8:53	4.733	not used
SW CITY CONTROL	162	6/10/2011 8:53	4.292	not used
SW CITY CONTROL	163	6/10/2011 8:53	4.764	not used
SW CITY CONTROL	164	6/10/2011 8:54	3.342	not used
SW CITY CONTROL	165	6/10/2011 8:54	4.106	not used
SW CITY CONTROL	166	6/10/2011 8:54	4.826	not used
SW CITY CONTROL	167	6/10/2011 8:54	4.205	not used
SW CITY CONTROL	168	6/10/2011 8:54	3.818	not used
SW CITY CONTROL	169	6/10/2011 8:55	3.815	not used
SW CITY CONTROL	170	6/10/2011 8:55	5.176	not used
SW CITY CONTROL	171	6/10/2011 8:55	4.392	not used
SW CITY CONTROL	172	6/10/2011 8:55	4.738	not used
SW CITY CONTROL	173	6/10/2011 8:55	3.835	not used
SW CITY CONTROL	174	6/10/2011 8:56	4.356	not used
SW CITY CONTROL	175	6/10/2011 8:56	4.18	not used
SW CITY CONTROL	176	6/10/2011 8:56	4.318	not used
SW CITY CONTROL	177	6/10/2011 8:56	4.654	not used
SW CITY CONTROL	178	6/10/2011 8:56	4.3	not used
SW CITY CONTROL	179	6/10/2011 8:56	4.17	not used
SW CITY CONTROL	180	6/10/2011 8:56	4.546	not used
SW CITY CONTROL	181	6/10/2011 8:57	4.615	not used
SW CITY CONTROL	182	6/10/2011 8:57	3.749	not used
SW CITY CONTROL	183	6/10/2011 8:57	4.76	not used
SW CITY CONTROL	184	6/10/2011 8:57	4.45	not used
SW CITY CONTROL	185	6/10/2011 8:57	4.14	not used
SW CITY CONTROL	186	6/10/2011 8:57	4.367	not used
SW CITY CONTROL	187	6/10/2011 8:57	3.73	not used
SW CITY CONTROL	188	6/10/2011 8:58	4.515	not used	
SW CITY CONTROL	189	6/10/2011 8:58	3.947	not used	
SW CITY CONTROL	190	6/10/2011 8:58	4.172	not used	
SW CITY CONTROL	191	6/10/2011 8:58	4.465	not used	
SW CITY CONTROL	192	6/10/2011 8:58	4.696	not used	
SW CITY CONTROL	193	6/10/2011 8:58	4.882	not used	
SW CITY CONTROL	194	6/10/2011 8:59	4.928	not used	
SW CITY CONTROL	195	6/10/2011 8:59	4.713	not used	
SW CITY CONTROL	196	6/10/2011 8:59	4.431	not used	
SW CITY CONTROL	197	6/10/2011 8:59	3.975	not used	
SW CITY CONTROL	198	6/10/2011 8:59	4.601	not used	
SW CITY CONTROL	199	6/10/2011 8:59	3.903	not used	
SW CITY CONTROL	200	6/10/2011 8:59	3.738	not used	
SW CITY CONTROL	201	6/10/2011 11:08	3.962	not used	Fud Lo - 4.05 proj; 3.95 actual
SW CITY CONTROL	202	6/10/2011 11:08	3.976	not used	
SW CITY CONTROL	203	6/10/2011 11:08	4.296	not used	
SW CITY CONTROL	204	6/10/2011 11:08	3.452	not used
SW CITY CONTROL	205	6/10/2011 11:08	3.357	not used
SW CITY CONTROL	206	6/10/2011 11:08	3.83	not used
SW CITY CONTROL	207	6/10/2011 11:08	3.417	not used
SW CITY CONTROL	208	6/10/2011 11:08	4.087	not used
SW CITY CONTROL	209	6/10/2011 11:09	3.383	not used
SW CITY CONTROL	210	6/10/2011 11:09	3.713	not used
SW CITY CONTROL	211	6/10/2011 11:09	3.375	not used
SW CITY CONTROL	212	6/10/2011 11:09	3.88	not used
SW CITY CONTROL	213	6/10/2011 11:09	3.271	not used
SW CITY CONTROL	214	6/10/2011 11:09	3.465	not used
SW CITY CONTROL	215	6/10/2011 11:09	3.603	not used
SW CITY CONTROL	216	6/10/2011 11:10	4.171	not used
SW CITY CONTROL	217	6/10/2011 11:10	3.486	not used
SW CITY CONTROL	218	6/10/2011 11:10	2.965	not used
SW CITY CONTROL	219	6/10/2011 11:10	4.55	not used
SW CITY CONTROL	220	6/10/2011 11:10	4.32	not used
SW CITY CONTROL	221	6/10/2011 11:10	3.156	not used
SW CITY CONTROL	222	6/10/2011 11:10	3.448	not used
SW CITY CONTROL	223	6/10/2011 11:11	2.979	not used
SW CITY CONTROL	224	6/10/2011 11:11	4.061	not used
SW CITY CONTROL	225	6/10/2011 11:11	4.133	not used
SW CITY CONTROL	226	6/10/2011 11:11	3.146	not used
SW CITY CONTROL	227	6/10/2011 11:11	4.296	not used
SW CITY CONTROL	228	6/10/2011 11:11	3.516	not used
SW CITY CONTROL	229	6/10/2011 11:11	3.765	not used
SW CITY CONTROL	230	6/10/2011 11:11	4.048	not used
SW CITY CONTROL	231	6/10/2011 11:12	3.506	not used
SW CITY CONTROL	232	6/10/2011 11:12	3.703	not used
SW CITY CONTROL	233	6/10/2011 11:12	3.061	not used
SW CITY CONTROL	234	6/10/2011 11:12	3.443	not used
SW CITY CONTROL	235	6/10/2011 11:12	3.364	not used
SW CITY CONTROL	236	6/10/2011 11:12	3.485	not used
SW CITY CONTROL	237	6/10/2011 11:12	3.502	not used
SW CITY CONTROL	238	6/10/2011 11:13	3.162	not used
SW CITY CONTROL	239	6/10/2011 11:13	3.692	not used
SW CITY CONTROL	240	6/10/2011 11:13	3.583	not used
SW CITY CONTROL	241	6/10/2011 11:13	3.39	not used
SW CITY CONTROL	242	6/10/2011 11:13	3.995	not used
SW CITY CONTROL	243	6/10/2011 11:13	3.705	not used
SW CITY CONTROL	244	6/10/2011 11:13	3.331	not used
SW CITY CONTROL	245	6/10/2011 11:14	3.607	not used
SW CITY CONTROL	246	6/10/2011 11:14	3.256	not used
SW CITY CONTROL	247	6/10/2011 11:14	3.734	not used
SW CITY CONTROL	248	6/10/2011 11:14	3.534	not used
SW CITY CONTROL	249	6/10/2011 11:14	3.624	not used
SW CITY CONTROL	250	6/10/2011 11:14	3.707	not used
SW CITY CONTROL	251	6/10/2011 11:14	3.58	not used
SW CITY CONTROL	252	6/10/2011 11:14	4.214	not used
SW CITY CONTROL	253	6/10/2011 11:15	3.82	not used
SW CITY CONTROL	254	6/10/2011 11:15	3.748	not used
SW CITY CONTROL	255	6/10/2011 11:15	3.917	not used
SW CITY CONTROL	256	6/10/2011 11:15	3.584	not used
SW CITY CONTROL	257	6/10/2011 11:15	3.755	not used
SW CITY CONTROL	258	6/10/2011 11:15	3.173	not used
SW CITY CONTROL	259	6/10/2011 11:16	2.947	not used
SW CITY CONTROL	260	6/10/2011 11:16	3.203	not used
SW CITY CONTROL	261	6/10/2011 11:16	3.816	not used
SW CITY CONTROL	262	6/10/2011 11:16	3.502	not used
SW CITY CONTROL	263	6/10/2011 11:16	3.449	not used
SW CITY CONTROL	264	6/10/2011 11:16	4.234	not used
SW CITY CONTROL	265	6/10/2011 11:16	3.371	not used
SW CITY CONTROL	266	6/10/2011 11:16	3.367	not used
SW CITY CONTROL	267	6/10/2011 11:17	3.5	not used
SW CITY CONTROL	268	6/10/2011 11:17	3.936	not used
SW CITY CONTROL	269	6/10/2011 11:17	2.673	not used
SW CITY CONTROL	270	6/10/2011 11:17	3.429	not used
SW CITY CONTROL	271	6/10/2011 11:17	3.366	not used
SW CITY CONTROL	272	6/10/2011 11:17	3.731	not used
SW CITY CONTROL	273	6/10/2011 11:17	2.844	not used
SW CITY CONTROL	274	6/10/2011 11:18	3.784	not used
SW CITY CONTROL	275	6/10/2011 11:18	3.791	not used
SW CITY CONTROL	276	6/10/2011 11:18	3.469	not used
SW CITY CONTROL	277	6/10/2011 11:18	3.029	not used
SW CITY CONTROL	278	6/10/2011 11:18	4.07	not used
SW CITY CONTROL	279	6/10/2011 11:18	3.294	not used
SW CITY CONTROL	280	6/10/2011 11:18	4.162	not used
SW CITY CONTROL	281	6/10/2011 11:19	3.561	not used
SW CITY CONTROL	282	6/10/2011 11:19	3.688	not used
SW CITY CONTROL	283	6/10/2011 11:19	3.298	not used
SW CITY CONTROL	284	6/10/2011 11:19	2.449	not used
SW CITY CONTROL	285	6/10/2011 11:19	3.896	not used
SW CITY CONTROL	286	6/10/2011 11:19	4.074	not used
SW CITY CONTROL	287	6/10/2011 11:19	3.6	not used
SW CITY CONTROL	288	6/10/2011 11:20	3.209	not used
SW CITY CONTROL	289	6/10/2011 11:20	3.899	not used
SW CITY CONTROL	290	6/10/2011 11:20	3.156	not used
SW CITY CONTROL	291	6/10/2011 11:20	3.301	not used
SW CITY CONTROL	292	6/10/2011 11:20	3.461	not used
SW CITY CONTROL	293	6/10/2011 11:20	3.932	not used
SW CITY CONTROL	294	6/10/2011 11:20	3.376	not used
SW CITY CONTROL	295	6/10/2011 11:20	3.752	not used
SW CITY CONTROL	296	6/10/2011 11:21	4.649	not used
SW CITY CONTROL	297	6/10/2011 11:21	3.967	not used
SW CITY CONTROL	298	6/10/2011 11:21	4.367	not used
SW CITY CONTROL	299	6/10/2011 11:21	3.786	not used
SW CITY CONTROL	300	6/10/2011 11:21	4.106	not used
