File:	SW CITY CONTROL		Count:	300		CV [%]:	15.6
Scale:	MERIAL1		Average [lb]:	4.091		Uniformity [%]:	52.3
Note:			St. deviation [lb]:	0.64		Speed [1/hour]:	57

File	Number	Date and time	Weight [lb]	Sex / limit			
SW CITY CONTROL	1	6/7/2011 8:00	4.039	not used	Jimmy Jones - 4.13 proj; 3.96 actual		
SW CITY CONTROL	2	6/7/2011 8:00	3.981	not used			
SW CITY CONTROL	3	6/7/2011 8:00	3.525	not used			
SW CITY CONTROL	4	6/7/2011 8:00	4.279	not used			
SW CITY CONTROL	5	6/7/2011 8:01	3.427	not used			
SW CITY CONTROL	6	6/7/2011 8:01	4.096	not used			
SW CITY CONTROL	7	6/7/2011 8:01	4.249	not used			
SW CITY CONTROL	8	6/7/2011 8:01	3.694	not used			
SW CITY CONTROL	9	6/7/2011 8:01	4.169	not used			
SW CITY CONTROL	10	6/7/2011 8:02	3.87	not used			
SW CITY CONTROL	11	6/7/2011 8:02	3.673	not used			
SW CITY CONTROL	12	6/7/2011 8:02	3.854	not used
SW CITY CONTROL	13	6/7/2011 8:02	3.745	not used
SW CITY CONTROL	14	6/7/2011 8:03	3.618	not used
SW CITY CONTROL	15	6/7/2011 8:03	4.061	not used
SW CITY CONTROL	16	6/7/2011 8:03	4.054	not used
SW CITY CONTROL	17	6/7/2011 8:03	5.474	not used
SW CITY CONTROL	18	6/7/2011 8:04	3.803	not used
SW CITY CONTROL	19	6/7/2011 8:04	3.831	not used
SW CITY CONTROL	20	6/7/2011 8:04	3.669	not used
SW CITY CONTROL	21	6/7/2011 8:05	3.931	not used
SW CITY CONTROL	22	6/7/2011 8:05	4.267	not used
SW CITY CONTROL	23	6/7/2011 8:05	3.755	not used
SW CITY CONTROL	24	6/7/2011 8:05	3.955	not used
SW CITY CONTROL	25	6/7/2011 8:06	3.874	not used
SW CITY CONTROL	26	6/7/2011 8:06	3.88	not used
SW CITY CONTROL	27	6/7/2011 8:06	4.672	not used
SW CITY CONTROL	28	6/7/2011 8:06	3.685	not used
SW CITY CONTROL	29	6/7/2011 8:07	3.371	not used
SW CITY CONTROL	30	6/7/2011 8:07	3.792	not used
SW CITY CONTROL	31	6/7/2011 8:07	3.289	not used
SW CITY CONTROL	32	6/7/2011 8:07	4.248	not used
SW CITY CONTROL	33	6/7/2011 8:07	3.085	not used
SW CITY CONTROL	34	6/7/2011 8:08	3.659	not used
SW CITY CONTROL	35	6/7/2011 8:08	4.672	not used
SW CITY CONTROL	36	6/7/2011 8:08	3.557	not used
SW CITY CONTROL	37	6/7/2011 8:09	3.866	not used
SW CITY CONTROL	38	6/7/2011 8:09	3.282	not used
SW CITY CONTROL	39	6/7/2011 8:09	3.895	not used
SW CITY CONTROL	40	6/7/2011 8:09	3.67	not used
SW CITY CONTROL	41	6/7/2011 8:10	4.073	not used
SW CITY CONTROL	42	6/7/2011 8:10	4.387	not used
SW CITY CONTROL	43	6/7/2011 8:10	3.404	not used
SW CITY CONTROL	44	6/7/2011 8:10	3.93	not used
SW CITY CONTROL	45	6/7/2011 8:11	3.245	not used
SW CITY CONTROL	46	6/7/2011 8:11	3.567	not used
SW CITY CONTROL	47	6/7/2011 8:11	4.313	not used
SW CITY CONTROL	48	6/7/2011 8:11	3.556	not used
SW CITY CONTROL	49	6/7/2011 8:11	4.66	not used
SW CITY CONTROL	50	6/7/2011 8:12	3.593	not used
SW CITY CONTROL	51	6/7/2011 8:12	4.333	not used
SW CITY CONTROL	52	6/7/2011 8:12	4.113	not used
SW CITY CONTROL	53	6/7/2011 8:12	5.316	not used
SW CITY CONTROL	54	6/7/2011 8:13	3.547	not used
SW CITY CONTROL	55	6/7/2011 8:13	4.951	not used
SW CITY CONTROL	56	6/7/2011 8:13	3.781	not used
SW CITY CONTROL	57	6/7/2011 8:13	4.918	not used
SW CITY CONTROL	58	6/7/2011 8:14	5.328	not used
SW CITY CONTROL	59	6/7/2011 8:14	2.05	not used
SW CITY CONTROL	60	6/7/2011 8:14	4.324	not used
SW CITY CONTROL	61	6/7/2011 8:14	4.405	not used
SW CITY CONTROL	62	6/7/2011 8:15	4.324	not used
SW CITY CONTROL	63	6/7/2011 8:15	4.419	not used
SW CITY CONTROL	64	6/7/2011 8:15	4.075	not used
SW CITY CONTROL	65	6/7/2011 8:15	3.18	not used
SW CITY CONTROL	66	6/7/2011 8:16	3.347	not used
SW CITY CONTROL	67	6/7/2011 8:16	4.47	not used
SW CITY CONTROL	68	6/7/2011 8:16	4.21	not used
SW CITY CONTROL	69	6/7/2011 8:16	2.877	not used
SW CITY CONTROL	70	6/7/2011 8:17	5.631	not used
SW CITY CONTROL	71	6/7/2011 8:17	4.22	not used
SW CITY CONTROL	72	6/7/2011 8:17	3.814	not used
SW CITY CONTROL	73	6/7/2011 8:17	3.916	not used
SW CITY CONTROL	74	6/7/2011 8:18	3.371	not used
SW CITY CONTROL	75	6/7/2011 8:18	4.064	not used
SW CITY CONTROL	76	6/7/2011 8:18	3.903	not used
SW CITY CONTROL	77	6/7/2011 8:18	5.186	not used
SW CITY CONTROL	78	6/7/2011 8:19	4.666	not used
SW CITY CONTROL	79	6/7/2011 8:19	3.541	not used
SW CITY CONTROL	80	6/7/2011 8:19	4.452	not used
SW CITY CONTROL	81	6/7/2011 8:19	4.629	not used
SW CITY CONTROL	82	6/7/2011 8:20	4.857	not used
SW CITY CONTROL	83	6/7/2011 8:20	4.274	not used
SW CITY CONTROL	84	6/7/2011 8:20	4.018	not used
SW CITY CONTROL	85	6/7/2011 8:20	3.618	not used
SW CITY CONTROL	86	6/7/2011 8:21	3.994	not used
SW CITY CONTROL	87	6/7/2011 8:21	5.274	not used
SW CITY CONTROL	88	6/7/2011 8:21	4.022	not used
SW CITY CONTROL	89	6/7/2011 8:21	3.848	not used
SW CITY CONTROL	90	6/7/2011 8:22	4.453	not used
SW CITY CONTROL	91	6/7/2011 8:22	4.722	not used
SW CITY CONTROL	92	6/7/2011 8:22	3.966	not used
SW CITY CONTROL	93	6/7/2011 8:22	3.324	not used
SW CITY CONTROL	94	6/7/2011 8:23	4.949	not used
SW CITY CONTROL	95	6/7/2011 8:23	4.45	not used
SW CITY CONTROL	96	6/7/2011 8:23	4.459	not used
SW CITY CONTROL	97	6/7/2011 8:23	3.746	not used
SW CITY CONTROL	98	6/7/2011 8:24	5.132	not used
SW CITY CONTROL	99	6/7/2011 8:24	4.077	not used
SW CITY CONTROL	100	6/7/2011 8:24	4.133	not used
SW CITY CONTROL	101	6/7/2011 8:56	3.615	not used
SW CITY CONTROL	102	6/7/2011 8:56	3.974	not used
SW CITY CONTROL	103	6/7/2011 8:56	3.806	not used
SW CITY CONTROL	104	6/7/2011 8:56	3.62	not used
SW CITY CONTROL	105	6/7/2011 8:56	4.255	not used
SW CITY CONTROL	106	6/7/2011 8:56	4.183	not used
SW CITY CONTROL	107	6/7/2011 8:57	4	not used
SW CITY CONTROL	108	6/7/2011 8:57	4.884	not used
SW CITY CONTROL	109	6/7/2011 8:57	4.178	not used
SW CITY CONTROL	110	6/7/2011 8:57	3.196	not used
SW CITY CONTROL	111	6/7/2011 8:57	4.241	not used
SW CITY CONTROL	112	6/7/2011 8:57	4.881	not used
SW CITY CONTROL	113	6/7/2011 8:57	5.333	not used
SW CITY CONTROL	114	6/7/2011 8:57	4.128	not used
SW CITY CONTROL	115	6/7/2011 8:58	4.561	not used
SW CITY CONTROL	116	6/7/2011 8:58	3.569	not used
SW CITY CONTROL	117	6/7/2011 8:58	4.493	not used
SW CITY CONTROL	118	6/7/2011 8:58	3.761	not used
SW CITY CONTROL	119	6/7/2011 8:58	4.473	not used
SW CITY CONTROL	120	6/7/2011 8:58	4.787	not used
SW CITY CONTROL	121	6/7/2011 8:58	3.716	not used
SW CITY CONTROL	122	6/7/2011 8:58	4.408	not used
SW CITY CONTROL	123	6/7/2011 8:59	3.672	not used
SW CITY CONTROL	124	6/7/2011 8:59	3.876	not used
SW CITY CONTROL	125	6/7/2011 8:59	4.429	not used
SW CITY CONTROL	126	6/7/2011 8:59	3.02	not used
SW CITY CONTROL	127	6/7/2011 8:59	4.333	not used
SW CITY CONTROL	128	6/7/2011 8:59	3.708	not used
SW CITY CONTROL	129	6/7/2011 8:59	3.021	not used
SW CITY CONTROL	130	6/7/2011 8:59	3.777	not used
SW CITY CONTROL	131	6/7/2011 8:59	4.027	not used
SW CITY CONTROL	132	6/7/2011 9:00	3.768	not used
SW CITY CONTROL	133	6/7/2011 9:00	4.074	not used
SW CITY CONTROL	134	6/7/2011 9:00	4.228	not used
SW CITY CONTROL	135	6/7/2011 9:00	3.758	not used
SW CITY CONTROL	136	6/7/2011 9:00	1.189	not used
SW CITY CONTROL	137	6/7/2011 9:00	3.905	not used
SW CITY CONTROL	138	6/7/2011 9:00	4.766	not used
SW CITY CONTROL	139	6/7/2011 9:00	2.866	not used
SW CITY CONTROL	140	6/7/2011 9:00	3.673	not used
SW CITY CONTROL	141	6/7/2011 9:01	5.217	not used
SW CITY CONTROL	142	6/7/2011 9:01	4.325	not used
SW CITY CONTROL	143	6/7/2011 9:01	4.972	not used
SW CITY CONTROL	144	6/7/2011 9:01	2.904	not used
SW CITY CONTROL	145	6/7/2011 9:01	3.395	not used
SW CITY CONTROL	146	6/7/2011 9:01	2.825	not used
SW CITY CONTROL	147	6/7/2011 9:01	4.122	not used
SW CITY CONTROL	148	6/7/2011 9:01	2.934	not used
SW CITY CONTROL	149	6/7/2011 9:01	4.028	not used
SW CITY CONTROL	150	6/7/2011 9:02	3.468	not used
SW CITY CONTROL	151	6/7/2011 9:02	4.12	not used
SW CITY CONTROL	152	6/7/2011 9:02	4.282	not used
SW CITY CONTROL	153	6/7/2011 9:02	3.92	not used
SW CITY CONTROL	154	6/7/2011 9:02	3.613	not used
SW CITY CONTROL	155	6/7/2011 9:02	4.458	not used
SW CITY CONTROL	156	6/7/2011 9:03	3.869	not used
SW CITY CONTROL	157	6/7/2011 9:03	4.597	not used
SW CITY CONTROL	158	6/7/2011 9:03	3.588	not used
SW CITY CONTROL	159	6/7/2011 9:03	3.805	not used
SW CITY CONTROL	160	6/7/2011 9:03	3.495	not used
SW CITY CONTROL	161	6/7/2011 9:03	5.301	not used
SW CITY CONTROL	162	6/7/2011 9:03	4.102	not used
SW CITY CONTROL	163	6/7/2011 9:03	4.599	not used
SW CITY CONTROL	164	6/7/2011 9:04	4.872	not used
SW CITY CONTROL	165	6/7/2011 9:04	4.442	not used
SW CITY CONTROL	166	6/7/2011 9:04	2.657	not used
SW CITY CONTROL	167	6/7/2011 9:04	3.723	not used
SW CITY CONTROL	168	6/7/2011 9:04	3.579	not used
SW CITY CONTROL	169	6/7/2011 9:04	3.606	not used
SW CITY CONTROL	170	6/7/2011 9:04	3.617	not used
SW CITY CONTROL	171	6/7/2011 9:04	2.725	not used
SW CITY CONTROL	172	6/7/2011 9:04	4.031	not used
SW CITY CONTROL	173	6/7/2011 9:05	4.01	not used
SW CITY CONTROL	174	6/7/2011 9:05	4.234	not used
SW CITY CONTROL	175	6/7/2011 9:05	3.314	not used
SW CITY CONTROL	176	6/7/2011 9:05	3.337	not used
SW CITY CONTROL	177	6/7/2011 9:05	3.008	not used
SW CITY CONTROL	178	6/7/2011 9:05	2.4	not used
SW CITY CONTROL	179	6/7/2011 9:05	2.943	not used
SW CITY CONTROL	180	6/7/2011 9:06	3.438	not used
SW CITY CONTROL	181	6/7/2011 9:06	3.352	not used
SW CITY CONTROL	182	6/7/2011 9:06	3.758	not used
SW CITY CONTROL	183	6/7/2011 9:07	4.436	not used
SW CITY CONTROL	184	6/7/2011 9:07	2.554	not used
SW CITY CONTROL	185	6/7/2011 9:07	3.29	not used
SW CITY CONTROL	186	6/7/2011 9:07	3.413	not used
SW CITY CONTROL	187	6/7/2011 9:07	3.473	not used
SW CITY CONTROL	188	6/7/2011 9:07	2.866	not used	
SW CITY CONTROL	189	6/7/2011 9:07	2.893	not used	
SW CITY CONTROL	190	6/7/2011 9:07	4.382	not used	
SW CITY CONTROL	191	6/7/2011 9:08	3.154	not used	
SW CITY CONTROL	192	6/7/2011 9:08	3.851	not used	
SW CITY CONTROL	193	6/7/2011 9:08	3.975	not used	
SW CITY CONTROL	194	6/7/2011 9:08	3.845	not used	
SW CITY CONTROL	195	6/7/2011 9:08	4.279	not used	
SW CITY CONTROL	196	6/7/2011 9:08	3.302	not used	
SW CITY CONTROL	197	6/7/2011 9:08	3.808	not used	
SW CITY CONTROL	198	6/7/2011 9:08	3.846	not used	
SW CITY CONTROL	199	6/7/2011 9:08	3.838	not used	
SW CITY CONTROL	200	6/7/2011 9:09	4.236	not used	
SW CITY CONTROL	201	6/7/2011 13:03	4.231	not used	Glenn Whitman - 4.16 proj; 4.32 actual
SW CITY CONTROL	202	6/7/2011 13:04	4.692	not used	
SW CITY CONTROL	203	6/7/2011 13:04	4.188	not used	
SW CITY CONTROL	204	6/7/2011 13:04	3.481	not used
SW CITY CONTROL	205	6/7/2011 13:04	4.78	not used
SW CITY CONTROL	206	6/7/2011 13:04	4.403	not used
SW CITY CONTROL	207	6/7/2011 13:04	3.914	not used
SW CITY CONTROL	208	6/7/2011 13:05	3.994	not used
SW CITY CONTROL	209	6/7/2011 13:05	4.493	not used
SW CITY CONTROL	210	6/7/2011 13:05	3.837	not used
SW CITY CONTROL	211	6/7/2011 13:05	4.491	not used
SW CITY CONTROL	212	6/7/2011 13:05	3.599	not used
SW CITY CONTROL	213	6/7/2011 13:05	4.3	not used
SW CITY CONTROL	214	6/7/2011 13:05	5.37	not used
SW CITY CONTROL	215	6/7/2011 13:06	5.135	not used
SW CITY CONTROL	216	6/7/2011 13:06	4.663	not used
SW CITY CONTROL	217	6/7/2011 13:06	4.35	not used
SW CITY CONTROL	218	6/7/2011 13:06	4.318	not used
SW CITY CONTROL	219	6/7/2011 13:06	4.085	not used
SW CITY CONTROL	220	6/7/2011 13:06	4.369	not used
SW CITY CONTROL	221	6/7/2011 13:07	4.542	not used
SW CITY CONTROL	222	6/7/2011 13:07	4.194	not used
SW CITY CONTROL	223	6/7/2011 13:07	4.161	not used
SW CITY CONTROL	224	6/7/2011 13:07	5.038	not used
SW CITY CONTROL	225	6/7/2011 13:07	5.374	not used
SW CITY CONTROL	226	6/7/2011 13:07	4.261	not used
SW CITY CONTROL	227	6/7/2011 13:07	3.464	not used
SW CITY CONTROL	228	6/7/2011 13:07	4.922	not used
SW CITY CONTROL	229	6/7/2011 13:07	4.214	not used
SW CITY CONTROL	230	6/7/2011 13:08	4.636	not used
SW CITY CONTROL	231	6/7/2011 13:08	3.984	not used
SW CITY CONTROL	232	6/7/2011 13:08	3.984	not used
SW CITY CONTROL	233	6/7/2011 13:08	4.983	not used
SW CITY CONTROL	234	6/7/2011 13:08	4.619	not used
SW CITY CONTROL	235	6/7/2011 13:08	3.886	not used
SW CITY CONTROL	236	6/7/2011 13:08	5.332	not used
SW CITY CONTROL	237	6/7/2011 13:08	4.276	not used
SW CITY CONTROL	238	6/7/2011 13:09	4.688	not used
SW CITY CONTROL	239	6/7/2011 13:09	4.238	not used
SW CITY CONTROL	240	6/7/2011 13:09	3.711	not used
SW CITY CONTROL	241	6/7/2011 13:09	4.369	not used
SW CITY CONTROL	242	6/7/2011 13:09	4.349	not used
SW CITY CONTROL	243	6/7/2011 13:09	5.227	not used
SW CITY CONTROL	244	6/7/2011 13:09	3.87	not used
SW CITY CONTROL	245	6/7/2011 13:09	4.613	not used
SW CITY CONTROL	246	6/7/2011 13:09	4.23	not used
SW CITY CONTROL	247	6/7/2011 13:10	3.623	not used
SW CITY CONTROL	248	6/7/2011 13:10	4.945	not used
SW CITY CONTROL	249	6/7/2011 13:10	4.884	not used
SW CITY CONTROL	250	6/7/2011 13:10	4.703	not used
SW CITY CONTROL	251	6/7/2011 13:10	5.477	not used
SW CITY CONTROL	252	6/7/2011 13:10	4.126	not used
SW CITY CONTROL	253	6/7/2011 13:10	5.047	not used
SW CITY CONTROL	254	6/7/2011 13:10	5.328	not used
SW CITY CONTROL	255	6/7/2011 13:11	4.33	not used
SW CITY CONTROL	256	6/7/2011 13:11	4.178	not used
SW CITY CONTROL	257	6/7/2011 13:11	4.011	not used
SW CITY CONTROL	258	6/7/2011 13:11	3.642	not used
SW CITY CONTROL	259	6/7/2011 13:11	4.865	not used
SW CITY CONTROL	260	6/7/2011 13:11	4.263	not used
SW CITY CONTROL	261	6/7/2011 13:11	3.468	not used
SW CITY CONTROL	262	6/7/2011 13:11	4.553	not used
SW CITY CONTROL	263	6/7/2011 13:11	4.274	not used
SW CITY CONTROL	264	6/7/2011 13:11	4.536	not used
SW CITY CONTROL	265	6/7/2011 13:12	4.54	not used
SW CITY CONTROL	266	6/7/2011 13:12	3.845	not used
SW CITY CONTROL	267	6/7/2011 13:12	3.882	not used
SW CITY CONTROL	268	6/7/2011 13:12	4.034	not used
SW CITY CONTROL	269	6/7/2011 13:12	4.532	not used
SW CITY CONTROL	270	6/7/2011 13:12	4.336	not used
SW CITY CONTROL	271	6/7/2011 13:12	3.542	not used
SW CITY CONTROL	272	6/7/2011 13:12	5.13	not used
SW CITY CONTROL	273	6/7/2011 13:13	4.524	not used
SW CITY CONTROL	274	6/7/2011 13:13	4.491	not used
SW CITY CONTROL	275	6/7/2011 13:13	4.061	not used
SW CITY CONTROL	276	6/7/2011 13:13	4.107	not used
SW CITY CONTROL	277	6/7/2011 13:13	4.271	not used
SW CITY CONTROL	278	6/7/2011 13:13	4.397	not used
SW CITY CONTROL	279	6/7/2011 13:13	4.566	not used
SW CITY CONTROL	280	6/7/2011 13:13	5.132	not used
SW CITY CONTROL	281	6/7/2011 13:14	3.26	not used
SW CITY CONTROL	282	6/7/2011 13:14	4.849	not used
SW CITY CONTROL	283	6/7/2011 13:14	4.736	not used
SW CITY CONTROL	284	6/7/2011 13:14	4.443	not used
SW CITY CONTROL	285	6/7/2011 13:14	4.944	not used
SW CITY CONTROL	286	6/7/2011 13:14	4.868	not used
SW CITY CONTROL	287	6/7/2011 13:14	3.153	not used
SW CITY CONTROL	288	6/7/2011 13:14	5.116	not used
SW CITY CONTROL	289	6/7/2011 13:15	4.43	not used
SW CITY CONTROL	290	6/7/2011 13:15	3.323	not used
SW CITY CONTROL	291	6/7/2011 13:15	4.941	not used
SW CITY CONTROL	292	6/7/2011 13:15	3.749	not used
SW CITY CONTROL	293	6/7/2011 13:15	4.984	not used
SW CITY CONTROL	294	6/7/2011 13:15	4.493	not used
SW CITY CONTROL	295	6/7/2011 13:15	4.273	not used
SW CITY CONTROL	296	6/7/2011 13:15	4.043	not used
SW CITY CONTROL	297	6/7/2011 13:15	4.469	not used
SW CITY CONTROL	298	6/7/2011 13:16	4.296	not used
SW CITY CONTROL	299	6/7/2011 13:16	4.745	not used
SW CITY CONTROL	300	6/7/2011 13:16	5.369	not used
