title,GSM menu,,,,,,,,
prefix,,,,,,,,,
file,MenuGsm,,,,,,,,
Object,Name,Data Type,Class,Units,Decimals,Low Limit,High Limit,Default,Comment
Gsm,menu,,,,,,,,
,Power options,menu,,,,,,,GSM module power options
,Contacts,menu,,,,,,,Contacts with phone numbers
,Commands,menu,,,,,,,SMS commands
,Events,menu,,,,,,,Events delivery
,Info,menu,,,,,,,"PIN entered, Registered, operator, RSSI"
,PIN code,menu,,,,,,,Enter PIN
,,,,,,,,,
prefix,Gsm,,,,,,,,
mprefix,Gsm,,,,,,,,
Object,Name,Data Type,Class,Units,Decimals,Low Limit,High Limit,Default,Comment
Contacts,menu,,,,,,,,
,Edit,menu,,,,,,,
,Create,menu,,,,,,,
,Delete,menu,,,,,,,
,,,,,,,,,
Object,Name,Data Type,Class,Units,Decimals,Low Limit,High Limit,Default,Comment
Contact,,,,,,,,,
,Name,char,string,,,0,16,?,Contact name
,Phone number,char,string,,,0,16,0,Phone number
,SMS format,byte,Gsm SMS format,,,,,MOBILE_PHONE,SMS format
,Statistics,byte,YesNo,,,,,NO,Send daily statistics
,Send histogram,byte,YesNo,,,,,NO,Send histogram also
,Commands,byte,YesNo,,,,,NO,Accept commands
,Events,byte,YesNo,,,,,NO,Send events
,_Dummy,byte,spare,,,,,,
,,,,,,,,,
Object,Name,Data Type,Class,Units,Decimals,Low Limit,High Limit,Default,Comment
Commands,,,,,,,,,
,Enabled,byte,YesNo,,,,,NO,Enable commands processing
,Check phone number,byte,YesNo,,,,,YES,Check originator phone number
,Expiration,word,,min,,1,99,10,Command expiration time
,,,,,,,,,
Object,Name,Data Type,Class,Units,Decimals,Low Limit,High Limit,Default,Comment
Events,,,,,,,,,
,Weight greater,Weight,,,,,,0,Average weight greater than
,Weight count less,word,,,,0,1000,0,Weight count after day closed is less than
,Status changed,byte,YesNo,,,,,NO,"Weighing status changed (stopped/suspended,...)"
,Device failure,byte,YesNo,,,,,NO,Some device failure
,,,,,,,,,
Object,Name,Data Type,Class,Units,Decimals,Low Limit,High Limit,Default,Comment
Power Options,,,,,,,,,
,Mode,byte,Gsm power mode,,,,,OFF,GSM power on mode
,Switch on period,byte,,min,,2,60,10,GSM power period
,Switch on duration,byte,,min,,1,60,2,GSM power on duration
,Switch on time,byte,,,,,,,
