title,Bat2 weighing configuration,,,,,,,,
prefix,Weighing,,,,,,,,
mprefix,Weighing,,,,,,,,
file,WeighingConfiguration,,,,,,,,
Object,Name,Data Type,Class,Units,Decimals,Low Limit,High Limit,Default,Comment
Configuration,,,,,,,,,
,Menu selection,menu,,,,,,,Menu mask selection
,Type,char,string,,,0,15,BROILERS,Chicken type
,Flock,char,string,,,0,15,Flock000,Flock name
,Initial day,Day Number,,,,1,999,1,Initial day
,Initial weight,Weight,,,,,,0,Initial weight
,Initial weights,menu,,,,,,,
,Growth curve,Curve Identifier,,,,0,100,0xFF,Weighing curve index
,Growth curves,menu,,,,,,,
,Standard curve,Curve Identifier,,,,0,100,0xFF,Standard curve for comparison
,Standard curves,menu,,,,,,,
,Correction Curve,Correction Identifier,,,,0,100,0xFF,Correction curve index
,Detection,menu,,,,,,,
,Target weights,menu,,,,,,,
,Acceptance,menu,,,,,,,
,Statistics,menu,,,,,,,
,Day start,Time,,,,,,0,Day start time (almost midnight)
,Start now,menu,,,,,,,Start weighing now
,Start later,menu,,,,,,,
,,,,,,,,,
prefix,Weighing,,,,,,,,
mprefix,,,,,,,,,
Initial Weights,,,,,,,,,
,Males,Weight,,,,,,0,Male initial weight
,Females,Weight,,,,,,0,Female initial weight
,,,,,,,,,
Growth Curves,,,,,,,,,
,Males,Curve Identifier,,,,0,100,0xFF,Male weighing curve index
,Females,Curve Identifier,,,,0,100,0xFF,Female weighing curve index
,,,,,,,,,
Standard Curves,,,,,,,,,
,Males,Curve Identifier,,,,0,100,0xFF,Standard curve for male comparison
,Females,Curve Identifier,,,,0,100,0xFF,Standard curve for female comparison
,,,,,,,,,
,,,,,,,,,
prefix,Weighing,,,,,,,,
mprefix,,,,,,,,,
Target Weights,,,,,,,,,
,Mode,byte,Prediction Mode,,,,,AUTOMATIC,Target weight prediction mode
,Growth,byte,Prediction Growth,,,,,SLOW,Target weight prediction with gain
,Sex differentiation,byte,Sex Differentiation,,,,,NO,Sex differentiation
,Sex,byte,Sex,,,,,UNDEFINED,Fixed sex
,Adjust target weights,byte,Adjust target weights,,,,,NONE,
,,,,,,,,,
Acceptance,,,,,,,,,
,Margin Above,byte,,%,,0,100,30,Margin above target [%]
,Margin Below,byte,,%,,0,100,30,Margin below target [%]
,Males,menu,Acceptance Data,,,,,,
,Females,menu,Acceptance Data,,,,,,
,,,,,,,,,
Acceptance Data,,,,,,,,,
,Margin Above,byte,,%,,0,100,30,Margin above target [%]
,Margin Below,byte,,%,,0,100,30,Margin below target [%]
,,,,,,,,,
,,,,,,,,,
Detection,,,,,,,,,
,Filter,byte,fixed,s,1,0.1,15,1.0,Smooth filter [0.1s]
,Stabilization Time,byte,fixed,s,1,0.1,10,0.5,Stabilisation Time  [0.1s]
,Stabilization Range,byte,fixed,%,1,0.1,1000,3.0,Relative stabilization range [0.1%]
,Step,byte,Platform Step Mode,,,,,ENTER,Step mode
